{
  "kind": "collectionType",
  "collectionName": "mediamarkts",
  "info": {
    "name": "Mediamarkt",
    "description": ""
  },
  "options": {
    "increments": true,
    "timestamps": true,
    "draftAndPublish": true
  },
  "attributes": {
    "source_code": {
      "type": "richtext"
    },
    "fetchedAt": {
      "type": "datetime"
    },
    "availabilityMetaTag": {
      "type": "string"
    },
    "hasChanged": {
      "type": "boolean"
    }
  }
}
